…
## Import dataset

Here we use `fread` function from **data.table** library because we have
no idea what delimiters are being used in this file (we cannot trust
file extension) and `fread` has automatic delimiter detection.

``` r
violations <- data.table::fread("data/liiklusjarelevalve_3.csv") %>% 
  as_data_frame()
violations
```

    ## # A tibble: 139,028 x 26
    ##    JuhtumId ToimKpv ToimKell ToimNadalapaev Seadus Paragrahv ParagrahvTais
    ##    <chr>    <chr>   <chr>    <chr>          <chr>  <chr>     <chr>        
    ##  1 95ff96e… 2012-1… 22:50    Esmaspäev      Liikl… § 224.    § 224. Mooto…
    ##  2 95ffa3c… 2012-1… 22:17    Esmaspäev      Liikl… § 227.    § 227. Mooto…
    ##  3 95ff953… 2012-1… 21:50    Esmaspäev      Liikl… § 242.    § 242. Mooto…
    ##  4 95ff988… 2012-1… 21:45    Esmaspäev      Liikl… § 227.    § 227. Mooto…
    ##  5 95ff988… 2012-1… 21:45    Esmaspäev      Liikl… § 207.    Tehnonõuetel…
    ##  6 95ffb01… 2012-1… 21:34    Esmaspäev      Liikl… § 242.    § 242. Mooto…
    ##  7 95ffb01… 2012-1… 21:34    Esmaspäev      Liikl… § 207.    Tehnonõuetel…
    ##  8 95ffa9b… 2012-1… 21:33    Esmaspäev      Liikl… § 227.    § 227. Mooto…
    ##  9 95ff97d… 2012-1… 21:32    Esmaspäev      Liikl… § 227.    § 227. Mooto…
    ## 10 95ffa1e… 2012-1… 21:09    Esmaspäev      Liikl… § 259.    § 259. Jalak…
    ## # ... with 139,018 more rows, and 19 more variables: Loige <chr>,
    ## #   Punkt <chr>, RikutudOigusnorm <chr>, MaakondNimetus <chr>,
    ## #   ValdLinnNimetus <chr>, KohtNimetus <chr>, MntVoiTanav <chr>,
    ## #   MntTanavNimetus <chr>, KM <int>, Lest_X <chr>, Lest_Y <chr>,
    ## #   SoidukLiik <chr>, SoidukRegRiik <chr>, SoidukMark <chr>,
    ## #   SoidukVlAasta <chr>, RikkujaSugu <chr>, RikkujaVanus <chr>,
    ## #   RikkujaElukoht <chr>, SyyteoLiik <chr>
…
``` r
colnames(violations) <- c("case_id", "date", "time", "weekday", "legislative_act", "section", 
  "section_title", "subsection", "clause", "violated_point_of_law", "county",
  "municipality", "district", "road_type", "road_name", "km", "lest_x", 
  "lest_y", "car_type", "reg_country", "car_make", "car_year", "sex", "age", "residence", "offence")
write_csv(violations, "output/traffic_supervision.csv")
```

Print out table with English names

``` r
violations
```

    ## # A tibble: 139,028 x 26
    ##    case_id date  time  weekday legislative_act section section_title
    ##    <chr>   <chr> <chr> <chr>   <chr>           <chr>   <chr>        
    ##  1 95ff96… 2012… 22:50 Esmasp… Liiklusseadus   § 224.  § 224. Mooto…
    ##  2 95ffa3… 2012… 22:17 Esmasp… Liiklusseadus   § 227.  § 227. Mooto…
    ##  3 95ff95… 2012… 21:50 Esmasp… Liiklusseadus   § 242.  § 242. Mooto…
    ##  4 95ff98… 2012… 21:45 Esmasp… Liiklusseadus   § 227.  § 227. Mooto…
    ##  5 95ff98… 2012… 21:45 Esmasp… Liiklusseadus   § 207.  Tehnonõuetel…
    ##  6 95ffb0… 2012… 21:34 Esmasp… Liiklusseadus   § 242.  § 242. Mooto…
    ##  7 95ffb0… 2012… 21:34 Esmasp… Liiklusseadus   § 207.  Tehnonõuetel…
    ##  8 95ffa9… 2012… 21:33 Esmasp… Liiklusseadus   § 227.  § 227. Mooto…
    ##  9 95ff97… 2012… 21:32 Esmasp… Liiklusseadus   § 227.  § 227. Mooto…
    ## 10 95ffa1… 2012… 21:09 Esmasp… Liiklusseadus   § 259.  § 259. Jalak…
    ## # ... with 139,018 more rows, and 19 more variables: subsection <chr>,
    ## #   clause <chr>, violated_point_of_law <chr>, county <chr>,
    ## #   municipality <chr>, district <chr>, road_type <chr>, road_name <chr>,
    ## #   km <int>, lest_x <chr>, lest_y <chr>, car_type <chr>,
    ## #   reg_country <chr>, car_make <chr>, car_year <chr>, sex <chr>,
    ## #   age <chr>, residence <chr>, offence <chr>
…
